<svg fill="white" height="512" width="512" xmlns="http://www.w3.org/2000/svg">
  <g>
    <path d="M352 400h-8v-80h-16v80H56l-.01-160H56v-16a16.018 16.018 0 00-16 16v160h-8V240a24.027 24.027 0 0124-24v-16a40.046 40.046 0 00-40 40v168a40.046 40.046 0 0040 40h104v8a24.027 24.027 0 01-24 24 8 8 0 000 16h112a8 8 0 000-16 24.027 24.027 0 01-24-24v-8h104a40.046 40.046 0 0040-40v-88h-16zm-135.981 80H167.98A39.798 39.798 0 00176 456v-8h32v8a39.798 39.798 0 008.019 24zM328 432H56a24.038 24.038 0 01-22.624-16h317.248A24.039 24.039 0 01328 432zM472 16H264a24.027 24.027 0 00-24 24v176a24.027 24.027 0 0024 24h208a24.027 24.027 0 0024-24V40a24.027 24.027 0 00-24-24zm8 200a8.01 8.01 0 01-8 8H264a8.01 8.01 0 01-8-8V40a8.01 8.01 0 018-8h208a8.01 8.01 0 018 8z"/>
    <path d="M272 64h192v16H272z"/>
    <circle cx="280" cy="48" r="8"/>
    <circle cx="304" cy="48" r="8"/>
    <circle cx="328" cy="48" r="8"/>
    <path d="M352 96h-72a8 8 0 00-8 8v72a8 8 0 008 8h72a8 8 0 008-8v-72a8 8 0 00-8-8zm-8 72h-56v-56h56zM456 96h-72a8 8 0 00-8 8v72a8 8 0 008 8h72a8 8 0 008-8v-72a8 8 0 00-8-8zm-8 72h-56v-56h56zM288 192h32v16h-32zM328 192h16v16h-16zM392 192h32v16h-32zM432 192h16v16h-16z"/>
    <path d="M392 280a8.01 8.01 0 01-8 8H176a8.01 8.01 0 01-8-8V104a8.01 8.01 0 018-8h48V80h-48a24.027 24.027 0 00-24 24v176a24.027 24.027 0 0024 24h208a24.027 24.027 0 0024-24v-24h-16z"/>
    <path d="M184 128h40v16h-40z"/>
    <circle cx="192" cy="112" r="8"/>
    <circle cx="216" cy="112" r="8"/>
    <path d="M88 384h208a24.027 24.027 0 0024-24v-40h-16v40a8.01 8.01 0 01-8 8H88a8.01 8.01 0 01-8-8V184a8.01 8.01 0 018-8h48v-16H88a24.027 24.027 0 00-24 24v176a24.027 24.027 0 0024 24z"/>
    <path d="M96 208h40v16H96z"/>
    <circle cx="104" cy="192" r="8"/>
    <circle cx="128" cy="192" r="8"/>
  </g>
</svg>
